{
  "formatVersion": 1,
  "database": {
    "version": 2,
    "identityHash": "3198f33b42c5a01023d7045aabc9239e",
    "entities": [
      {
        "tableName": "Chat",
        "createSql": "CREATE TABLE IF NOT EXISTS `${TABLE_NAME}` (`id` INTEGER PRIMARY KEY AUTOINCREMENT NOT NULL, `moment` INTEGER, `momentTz` TEXT, `entity` INTEGER NOT NULL, `text` TEXT, `language` TEXT, `polarity` REAL NOT NULL)",
        "fields": [
          {
            "fieldPath": "id",
            "columnName": "id",
            "affinity": "INTEGER",
            "notNull": true
          },
          {
            "fieldPath": "moment",
            "columnName": "moment",
            "affinity": "INTEGER",
            "notNull": false
          },
          {
            "fieldPath": "momentTz",
            "columnName": "momentTz",
            "affinity": "TEXT",
            "notNull": false
          },
          {
            "fieldPath": "entity",
            "columnName": "entity",
            "affinity": "INTEGER",
            "notNull": true
          },
          {
            "fieldPath": "text",
            "columnName": "text",
            "affinity": "TEXT",
            "notNull": false
          },
          {
            "fieldPath": "language",
            "columnName": "language",
            "affinity": "TEXT",
            "notNull": false
          },
          {
            "fieldPath": "polarity",
            "columnName": "polarity",
            "affinity": "REAL",
            "notNull": true
          }
        ],
        "primaryKey": {
          "columnNames": [
            "id"
          ],
          "autoGenerate": true
        },
        "indices": [
          {
            "name": "index_Chat_moment",
            "unique": false,
            "columnNames": [
              "moment"
            ],
            "createSql": "CREATE  INDEX `index_Chat_moment` ON `${TABLE_NAME}` (`moment`)"
          }
        ],
        "foreignKeys": []
      },
      {
        "tableName": "Collected",
        "createSql": "CREATE TABLE IF NOT EXISTS `${TABLE_NAME}` (`id` INTEGER PRIMARY KEY AUTOINCREMENT NOT NULL, `moment` INTEGER, `momentTz` TEXT, `sensorType` TEXT, `sensorAttribute` TEXT, `sensorValue` REAL, `sensorValueExtra` TEXT, `synced` INTEGER NOT NULL)",
        "fields": [
          {
            "fieldPath": "id",
            "columnName": "id",
            "affinity": "INTEGER",
            "notNull": true
          },
          {
            "fieldPath": "moment",
            "columnName": "moment",
            "affinity": "INTEGER",
            "notNull": false
          },
          {
            "fieldPath": "momentTz",
            "columnName": "momentTz",
            "affinity": "TEXT",
            "notNull": false
          },
          {
            "fieldPath": "sensorType",
            "columnName": "sensorType",
            "affinity": "TEXT",
            "notNull": false
          },
          {
            "fieldPath": "sensorAttribute",
            "columnName": "sensorAttribute",
            "affinity": "TEXT",
            "notNull": false
          },
          {
            "fieldPath": "sensorValue",
            "columnName": "sensorValue",
            "affinity": "REAL",
            "notNull": false
          },
          {
            "fieldPath": "sensorValueExtra",
            "columnName": "sensorValueExtra",
            "affinity": "TEXT",
            "notNull": false
          },
          {
            "fieldPath": "synced",
            "columnName": "synced",
            "affinity": "INTEGER",
            "notNull": true
          }
        ],
        "primaryKey": {
          "columnNames": [
            "id"
          ],
          "autoGenerate": true
        },
        "indices": [
          {
            "name": "index_Collected_synced_moment",
            "unique": false,
            "columnNames": [
              "synced",
              "moment"
            ],
            "createSql": "CREATE  INDEX `index_Collected_synced_moment` ON `${TABLE_NAME}` (`synced`, `moment`)"
          },
          {
            "name": "index_Collected_sensorType_sensorAttribute",
            "unique": false,
            "columnNames": [
              "sensorType",
              "sensorAttribute"
            ],
            "createSql": "CREATE  INDEX `index_Collected_sensorType_sensorAttribute` ON `${TABLE_NAME}` (`sensorType`, `sensorAttribute`)"
          }
        ],
        "foreignKeys": []
      },
      {
        "tableName": "Entity",
        "createSql": "CREATE TABLE IF NOT EXISTS `${TABLE_NAME}` (`primaryKey` INTEGER NOT NULL, `id` TEXT, `birthday` INTEGER, `gender` TEXT, `synced` INTEGER NOT NULL, PRIMARY KEY(`primaryKey`))",
        "fields": [
          {
            "fieldPath": "primaryKey",
            "columnName": "primaryKey",
            "affinity": "INTEGER",
            "notNull": true
          },
          {
            "fieldPath": "id",
            "columnName": "id",
            "affinity": "TEXT",
            "notNull": false
          },
          {
            "fieldPath": "birthday",
            "columnName": "birthday",
            "affinity": "INTEGER",
            "notNull": false
          },
          {
            "fieldPath": "gender",
            "columnName": "gender",
            "affinity": "TEXT",
            "notNull": false
          },
          {
            "fieldPath": "synced",
            "columnName": "synced",
            "affinity": "INTEGER",
            "notNull": true
          }
        ],
        "primaryKey": {
          "columnNames": [
            "primaryKey"
          ],
          "autoGenerate": false
        },
        "indices": [],
        "foreignKeys": []
      },
      {
        "tableName": "Parameter",
        "createSql": "CREATE TABLE IF NOT EXISTS `${TABLE_NAME}` (`id` INTEGER PRIMARY KEY AUTOINCREMENT NOT NULL, `moment` INTEGER, `momentTz` TEXT, `key` TEXT, `value` TEXT, `synced` INTEGER NOT NULL)",
        "fields": [
          {
            "fieldPath": "id",
            "columnName": "id",
            "affinity": "INTEGER",
            "notNull": true
          },
          {
            "fieldPath": "moment",
            "columnName": "moment",
            "affinity": "INTEGER",
            "notNull": false
          },
          {
            "fieldPath": "momentTz",
            "columnName": "momentTz",
            "affinity": "TEXT",
            "notNull": false
          },
          {
            "fieldPath": "key",
            "columnName": "key",
            "affinity": "TEXT",
            "notNull": false
          },
          {
            "fieldPath": "value",
            "columnName": "value",
            "affinity": "TEXT",
            "notNull": false
          },
          {
            "fieldPath": "synced",
            "columnName": "synced",
            "affinity": "INTEGER",
            "notNull": true
          }
        ],
        "primaryKey": {
          "columnNames": [
            "id"
          ],
          "autoGenerate": true
        },
        "indices": [
          {
            "name": "index_Parameter_synced_moment",
            "unique": false,
            "columnNames": [
              "synced",
              "moment"
            ],
            "createSql": "CREATE  INDEX `index_Parameter_synced_moment` ON `${TABLE_NAME}` (`synced`, `moment`)"
          },
          {
            "name": "index_Parameter_key",
            "unique": false,
            "columnNames": [
              "key"
            ],
            "createSql": "CREATE  INDEX `index_Parameter_key` ON `${TABLE_NAME}` (`key`)"
          }
        ],
        "foreignKeys": []
      }
    ],
    "setupQueries": [
      "CREATE TABLE IF NOT EXISTS room_master_table (id INTEGER PRIMARY KEY,identity_hash TEXT)",
      "INSERT OR REPLACE INTO room_master_table (id,identity_hash) VALUES(42, \"3198f33b42c5a01023d7045aabc9239e\")"
    ]
  }
}